https://www.youtube.com/watch?v=PRBKzx4QiSc
https://www.youtube.com/watch?v=q4SVMPGASIU
https://www.youtube.com/watch?v=EuTzDivsJb0
https://www.youtube.com/watch?v=5_IFhRgIbuQ
https://www.youtube.com/watch?v=8N6zmn7izto
https://www.youtube.com/watch?v=autKU43_NL8
https://www.youtube.com/watch?v=-xCFbxvnox8
https://www.youtube.com/watch?v=H7WDaveTqOE
https://www.youtube.com/watch?v=NnCRq_RLxe8
https://www.youtube.com/watch?v=enIcz7Eh_5M
https://seleniumbycharan.wordpress.com/2017/03/17/html-injection-reflected-get/
http://penthusiasts.blogspot.com/2013/12/bwapp-html-injection-reflected-get.html
http://www.free4net.com/2017/06/bwapp-html-injection-reflected-get-post.html
https://web.archive.org/web/20170906000054/http://teamultimate.in:80/html-injection-reflected-stored/
http://komorebi0122.blogspot.com/2016/12/high-html-injection-reflected-get.html
https://n00bsecurityblog.wordpress.com/2017/09/09/bwapp-series-html-injection-why-it-matters-and-html-injection-get/
https://www.youtube.com/watch?v=HuOJxvofOeY
https://n00bsecurityblog.wordpress.com/2017/09/20/html-injection-reflected-current-url/
https://www.jianshu.com/p/ee4cf6ca4d4c
http://security-is-just-an-illusion.blogspot.com/2014/01/bwapp-html-injection.html
https://newhd.mobi/bwapp-html-injection-reflected-get-q4SVMPGASIU.html
https://github.com/skiptomyliu/solutions-bwapp#html-injection---reflected-get
https://wooly6bear.files.wordpress.com/2016/01/bwapp-tutorial.pdf
https://youtu.be/ljbyvVAM7cc?t=19s
https://www.youtube.com/watch?v=SQKOaqVMuBs
http://hdvds9.com/video/file/bWAPP-HTML-Injection-?id=tg8AIdZ7XaQ
http://www.h3399.cn/201707/111479.html
http://security-is-just-an-illusion.blogspot.com/2014/01/bwapp-cross-site-scripting-xss.html
https://teckk2.github.io/web-pentesting/2018/02/07/HTML-Injection-Reflected(GET).html
https://www.youtube.com/watch?v=4YyjVUkGJgo
https://www.hackplayers.com/2017/06/diseccionando-bwapp-html-injection.html
https://www.solvetic.com/tutoriales/article/2916-pentesting-atacar-y-defender-aplicaciones-web-con-bwapp/
http://www.reydes.com/d/?q=Explotar_una_Inyeccion_HTML_Reflejada_utilizando_el_Metodo_GET_en_bWAPP
https://imgur.com/gallery/YJEtr
https://tw.saowen.com/a/8ca7fee4c8bfa3ce33da0ef9f0910284e4d97635dfe31075bafad98775c298cc
https://www.n00py.io/feed-items/bwapp-html-injection-reflected-get/
https://youtu.be/MMlo7nchP84?t=6m12s
https://www.youtube.com/watch?list=PLpBcTg_RVfn_hLMYGHPjAiese81JDPzVS&v=NnCRq_RLxe8
https://youtu.be/dt73Qw-oWZ8
https://youtu.be/2nsJzLlAPmY
https://youtu.be/aSOrWkZQHTE
