https://www.youtube.com/watch?v=4JBpYTj0o08
https://www.youtube.com/watch?v=5bpMz8vQd9g
http://webappsecmovies.sourceforge.net/webgoat/
http://www2.comp.polyu.edu.hk/~comp444/WebGoat.pdf
https://github.com/WebGoat/WebGoat/wiki/Main-Exploits
https://tuonilabs.wordpress.com/2016/12/15/owasp-webgoat-1-2/
https://trello.com/c/Ci7wETrZ/14-bypass-front-end-restriction
https://www.youtube.com/playlist?list=PLrHVSJmDPvlqxCfBhPuksHdpViPyeZTsF
https://www.owasp.org/index.php/Section_4:_Mitigating_the_WebGoat_lessons
http://limjetwee.blogspot.com/2018/07/owasp-webgoat-8-by-pass-front-end.html
https://git.bitsensor.io/demo/java-demo/commit/870fa000aa6ccea7a753a2095acc220ac3c4b5ea
https://cordis.europa.eu/docs/projects/cnect/6/257876/080/deliverables/001-spaciosd51.pdf
https://www.citrix.com/blogs/2014/03/19/how-to-demo-with-app-firewall-and-webgoat-part-1/
https://www.owasp.org/index.php/OWASP_ModSecurity_Securing_WebGoat_Section4_Sublesson_02.3
