https://pentester.land/challenge/2018/07/10/owasp-broken-web-apps-owasp-bricks-challenge-walkthrough.html#login-1
https://sechow.com/bricks/docs/login-1.html
https://www.youtube.com/watch?v=mCo6ajvBv50
