https://github.com/bsqrl/juice-shop-walkthrough#3-log-in-with-the-administrators-user-account
https://github.com/apox64/OWASP-Juice-Shop-Write-Up/blob/master/juice-shop-writeup.md#8-log-in-with-the-administrators-user-account
https://github.com/bkimminich/pwning-juice-shop/blob/master/appendix/solutions.md#log-in-with-the-administrators-user-account
https://www.youtube.com/watch?v=F8iRF2d-YzE&t=14s
https://youtu.be/Cz37iejTsH4?t=8m51s
https://ryan-villarreal.com/2018/06/29/juice-shop-walkthrough-part-1/
https://incognitjoe.github.io/hacking-the-juice-shop.html
https://n0j.github.io/2018/08/01/owasp-juice-shop-v7.3.0-level-2.html