https://www.youtube.com/watch?v=M_nIIcKTxGk
https://www.youtube.com/watch?v=dFci82qwXA0
https://www.youtube.com/watch?v=mpgRX_JfRYQ
https://www.youtube.com/watch?v=IuzU4y-UjLw
https://www.youtube.com/watch?v=0yyi8RVfJ-w
https://www.youtube.com/watch?v=u-96HkBS8mY
https://www.youtube.com/watch?v=486KmQOcwWg
https://www.youtube.com/watch?v=LcXLjj92xz4
https://www.youtube.com/watch?v=hv_ZEa6iK50
https://www.youtube.com/watch?v=XvbN8hQVLOM
