https://github.com/skiptomyliu/solutions-bwapp#broken-auth---captcha-bypassing
https://www.youtube.com/watch?v=qcNUqk1es3o
https://www.youtube.com/watch?v=hHSa44bg-sU
https://www.youtube.com/watch?v=X7snpgGuWuc
https://www.youtube.com/watch?v=ULP7oIjWixc
https://www.youtube.com/watch?v=ZrJJb-R6Czc
https://www.youtube.com/watch?v=39pjZf9hxwY
https://www.youtube.com/watch?v=qRmN-N0FLj4
https://www.youtube.com/watch?v=LxnIchsW3GE
https://www.youtube.com/watch?v=g-HeOCMZDxE
https://www.youtube.com/watch?v=hU23IcDfQzA
