https://www.youtube.com/watch?v=pzHxo5eR82Q
https://www.youtube.com/watch?v=Ac2rqwUgJco
https://www.binarytides.com/sqlmap-hacking-tutorial/
https://stories.devacademy.la/haciendo-inyecciones-sql-con-sqlmap-parte2-7d5a6973b9a7
https://sechow.com/bricks/docs/login-1.html
https://www.youtube.com/watch?v=pzHxo5eR82Q
https://www.youtube.com/watch?v=x0ITGIQhfTg
https://www.youtube.com/watch?v=h-9rHTLHJTY
https://www.veracode.com/security/sql-injection
https://www.acunetix.com/blog/articles/exploiting-sql-injection-example/
https://wicksnet.wordpress.com/2014/09/23/introduction-to-sql-injection-and-cross-site-scripting-xss/
