https://www.youtube.com/watch?v=CCXMg0yhGX0
https://www.youtube.com/watch?v=J-vySixRCsk
http://komorebi0122.blogspot.com/2016/12/low-html-injection-reflected-url.html
https://hk.saowen.com/a/85fc30f286ac9e6625396ab56f685a12b92bba339f2f0ab9c12a3c7399ed7704
https://www.cnblogs.com/hongren/p/7149012.html
https://seefilm.site/videosee/NVDPNfj-0ek/bwapp-html-injection-reflected-get-and-post-low-level
http://lispro06.woweb.net/imp/50644
http://stupidsecurity.tistory.com/60
https://thfilm.net/v-bwapp-html-injection-reflected-url-HuOJxvofOeY.html
https://www.youtube.com/watch?v=2UGirsDKt9o
https://www.youtube.com/watch?v=Sf1Ax_duZ_Y
http://www.hackingarticles.in/beginner-guide-html-injection/
https://github.com/skiptomyliu/solutions-bwapp#html-injection---reflected-url
https://wooly6bear.files.wordpress.com/2016/01/bwapp-tutorial.pdf
https://youtu.be/ljbyvVAM7cc?t=4m52s
https://www.youtube.com/watch?v=u5xpws6Dzn0
https://github.com/AulaLinux/Ethical-Hacking/wiki/bWAPP#html-injection---reflected-get
http://stupidsecurity.tistory.com/60?category=760177
https://teckk2.github.io/web-pentesting/2018/02/07/HTML-Injection-Reflected(URL).html
https://n00bsecurityblog.wordpress.com/tag/how-to-hack-bwapp/
https://www.jianshu.com/p/ee4cf6ca4d4c
https://youtu.be/enIcz7Eh_5M
https://youtu.be/j8tWNThetHg
https://youtu.be/aSOrWkZQHTE
