https://raw.githubusercontent.com/mzet-/ctf-writeups/master/DVWA/dvwa-low.md
https://raw.githubusercontent.com/mzet-/ctf-writeups/master/DVWA/dvwa-medium.md
https://ethicalhackneox.wordpress.com/2015/10/13/sql-injection-dvwa-tarea-5/
http://www.fuzzysecurity.com/tutorials/4.html
https://github.com/sheimo/DVWA-Answers#sqli--sqli-blind
https://www.homelab.it/index.php/2016/01/14/dvwa-sql-injection/index.html
https://pentestlab.blog/2012/09/18/sql-injection-exploitation-dvwa/
https://www.youtube.com/watch?v=UB4VaO4RIqY
https://www.youtube.com/watch?v=q2EkWm9kfKE
https://www.youtube.com/watch?v=GLvrieLufTA&index=7&list=PLZUQcQP4Xtlp64Q6tzw8GdLsOweBsKDSs
https://www.youtube.com/watch?v=ztxFcLNms40
http://www.tapost.org/wp-content/uploads/2016/10/3_s2_t3_1_Aigars-Naglis_Alise-Silde-LV.pdf
https://www.youtube.com/watch?v=P5YmmaaCeLo
https://www.youtube.com/watch?v=SxmmmxZlEUM
https://www.youtube.com/watch?v=F4tXa0tmTKo
https://youtu.be/cMXqi8T0Ooo
https://www.youtube.com/watch?v=mrjXlHQiSJg
https://drive.google.com/drive/folders/1Qd4I2vkHG4diUNYjDmH_g7LMaCZhgwt8
https://samiux.blogspot.com/2013/08/howto-dvwa-sql-injection.html
https://www.information-security.fr/dvwa-sql-injection-solutions-protections/
