https://www.youtube.com/watch?v=f81HoSND_hc
https://www.youtube.com/watch?v=nYl1kFzSMM0
https://www.youtube.com/watch?v=F9OxaEnez_E
https://www.youtube.com/watch?v=bassiLw4qMA
https://www.youtube.com/watch?v=9SaEk6bdBBQ
https://www.youtube.com/watch?v=kCqw4Jdrcuw
https://www.youtube.com/watch?v=vwKOiMTrrMI
https://www.youtube.com/watch?v=m6S4f6ivDGE
https://www.youtube.com/watch?v=lzRyD5Y7y3E
https://www.youtube.com/watch?v=Lv5PQsyyjeA
https://www.youtube.com/watch?v=s3XQ1n5kdeQ
https://www.youtube.com/watch?v=K1WpWm51bvs
https://www.offensive-security.com/metasploit-unleashed/file-inclusion-vulnerabilities/
https://hakin9.org/web-application-penetration-testing-local-file-inclusion-lfi-testing/
https://github.com/ethicalhack3r/DVWA/issues/103
https://raoufz1.wordpress.com/2016/12/31/dvwa-file-inclusion-low-medium-and-high/
https://null-byte.wonderhowto.com/how-to/exploit-php-file-inclusion-web-apps-0179955/
https://www.youtube.com/watch?v=bXEZrPVviZ8
https://www.youtube.com/watch?v=MTUNE7JhhDA
https://www.youtube.com/watch?v=C0J9kd2Qt2E
https://www.youtube.com/watch?v=_QyGCev6fCk
https://www.youtube.com/watch?v=CrX4elNseWY
https://www.youtube.com/watch?v=PReZd0MBOwk
https://youtu.be/RWfUdv1GsKM
https://github.com/sheimo/DVWA-Answers#command-execution
https://youtu.be/RYNiOGFI-TQ
https://drive.google.com/drive/folders/1Qd4I2vkHG4diUNYjDmH_g7LMaCZhgwt8
http://burakatabay.com/dvwa-file-inclusion/
https://www.information-security.fr/dvwa-csrf-file-inclusion-solutions-explications-protections/
