https://raw.githubusercontent.com/mzet-/ctf-writeups/master/DVWA/dvwa-low.md
https://raw.githubusercontent.com/mzet-/ctf-writeups/master/DVWA/dvwa-medium.md
https://computersecuritystudent.com/SECURITY_TOOLS/DVWA/DVWAv107/lesson10/index.html
https://redinfocol.org/dvwa-conociendo-y-explotando-diferentes-vulnerabilidades-level-low/
https://www.youtube.com/watch?v=-fJoQP19vH0&t=0s&list=PLYG-FZ4DA0VpYLEoDWou8pu3xEyI5N-N2&index=4
https://www.youtube.com/watch?v=y5beFVL-cME&list=PLZUQcQP4Xtlp64Q6tzw8GdLsOweBsKDSs&index=4
https://medium.com/@dannybeton/dvwa-csrf-tutorial-medium-security-e14724ceee8a
https://github.com/sysorem/dvwa-write-up#security-level--low
https://github.com/sysorem/dvwa-write-up#security-level--medium
https://github.com/sheimo/DVWA-Answers#csrf-you-can-send-this-link-to-an-admin-user-or-xss-it
https://youtu.be/FMnw_4GcpOI
https://youtu.be/AKaLJ2UKnc8
https://youtu.be/8k9sPF143os
https://youtu.be/ULa4yLI36PE
https://youtu.be/xJI8tcimKmA
https://medium.com/@xBBsec/csrf-medium-security-dvwa-writeup-f0b5f5c9b160
https://youtu.be/Kw6tt-0ibR0
https://youtu.be/Y3eyu5MonY4
https://youtu.be/NAR4nDEpD8g
https://drive.google.com/drive/folders/1Qd4I2vkHG4diUNYjDmH_g7LMaCZhgwt8
https://www.information-security.fr/dvwa-csrf-file-inclusion-solutions-explications-protections/
https://www.youtube.com/watch?v=zXPHlDmSkwc
https://www.youtube.com/watch?v=y5beFVL-cME
https://www.youtube.com/watch?v=X1OXDOhqHG0
https://www.youtube.com/watch?v=2Y7IywV1YBQ
https://www.youtube.com/watch?v=FHv0YzSUXpE
https://www.youtube.com/watch?v=HCLf7nkxkOM
https://www.youtube.com/watch?v=cg6Um1J0cpA
https://www.youtube.com/watch?v=hTOdxcGlMa8
https://www.youtube.com/watch?v=AKaLJ2UKnc8
https://www.youtube.com/watch?v=xJI8tcimKmA
https://www.youtube.com/watch?v=ULa4yLI36PE
https://www.youtube.com/watch?v=FMnw_4GcpOI
https://www.youtube.com/watch?v=qtoRptEGO1U
https://www.youtube.com/watch?v=Kw6tt-0ibR0
https://www.youtube.com/watch?v=RjthLURoT_g
https://www.youtube.com/watch?v=TJwG_5DB3_8
https://www.youtube.com/watch?v=oNJunOR9rT4
https://www.youtube.com/watch?v=LJbrMXMlQy8
https://www.youtube.com/watch?v=8k9sPF143os
https://www.youtube.com/watch?v=gX4LdVq_6Mc
https://www.youtube.com/watch?v=n6ivv1EOCkM
