https://github.com/skiptomyliu/solutions-bwapp#session-mgmt---administrative-portals
http://www.h3399.cn/201707/111479.html
https://dzone.com/articles/broken-authentication-and-session-management-part
https://youtu.be/g-HeOCMZDxE?t=13m46s
https://youtu.be/y60JLl935rI
https://youtu.be/eF7K6NAjb_c
https://seleniumbycharan.com/2017/07/30/broken-authentication-and-session-management-part-i/
