https://pentester.land/challenge/2018/07/10/owasp-broken-web-apps-owasp-bricks-challenge-walkthrough.html#content-4
https://sechow.com/bricks/docs/content-page-4.html
https://www.youtube.com/watch?v=Csqd-0kkwm0
https://youtu.be/UvgmaiT8n9E
