https://www.youtube.com/watch?v=tg8AIdZ7XaQ
https://www.youtube.com/watch?v=VrrI7jlN5gQ
https://www.youtube.com/watch?v=DttQZUgXlJA
https://www.youtube.com/watch?v=enIcz7Eh_5M
https://www.youtube.com/watch?v=rR16BY32vRQ
https://www.youtube.com/watch?v=WY6arY--W5A
https://www.youtube.com/watch?v=atYzbkTKgsw
https://www.youtube.com/watch?v=RxMS5NfoXn0
https://www.youtube.com/watch?v=EmHbHCesFBM
https://www.youtube.com/watch?v=ioAMje5TCKs
https://www.youtube.com/watch?v=TLkq6IUJlxc
https://www.youtube.com/watch?v=gSTXqgPNgxY
https://www.youtube.com/watch?v=E8qIcUTB9D8
https://www.youtube.com/watch?v=FQ8zLllkBbU
https://www.briskinfosec.com/test-union-based-sql-injection-post-request-parameter/
http://studysecurity-world.tistory.com/66
https://github.com/skiptomyliu/solutions-bwapp#sql-injection-postselect
https://youtu.be/oQOpyA72OT0?t=13m53s
https://www.youtube.com/watch?v=S0Np3zGBVUQ
http://www.h3399.cn/201707/111479.html
https://teckk2.github.io/web-pentesting/2018/02/07/SQL-Injection-(POST-Select).html
https://ctf-time.com/bwapp-walkthrough-sql-injection-cross-site-scripting/
https://inforensicsuex.wordpress.com/2014/05/13/sql-injection-en-bwapp-segundo-ejemplo/
